Replace Part P1 PinHeader1 in D:\altium\ultrazohm_digital_voltage_3U_1vxx\GroundPins.SchDoc with PinHeader1 from connectors.IntLib
Replace Part P2 PinHeader1 in D:\altium\ultrazohm_digital_voltage_3U_1vxx\GroundPins.SchDoc with PinHeader1 from connectors.IntLib
Replace Part P3 PinHeader1 in D:\altium\ultrazohm_digital_voltage_3U_1vxx\GroundPins.SchDoc with PinHeader1 from connectors.IntLib
Replace Part P4 PinHeader1 in D:\altium\ultrazohm_digital_voltage_3U_1vxx\GroundPins.SchDoc with PinHeader1 from connectors.IntLib
Replace Part P5 PinHeader1 in D:\altium\ultrazohm_digital_voltage_3U_1vxx\GroundPins.SchDoc with PinHeader1 from connectors.IntLib
Replace Part P6 PinHeader1 in D:\altium\ultrazohm_digital_voltage_3U_1vxx\GroundPins.SchDoc with PinHeader1 from connectors.IntLib
Replace Part P7 PinHeader1 in D:\altium\ultrazohm_digital_voltage_3U_1vxx\GroundPins.SchDoc with PinHeader1 from connectors.IntLib
Replace Part P8 PinHeader1 in D:\altium\ultrazohm_digital_voltage_3U_1vxx\GroundPins.SchDoc with PinHeader1 from connectors.IntLib
Replace Part P9 PinHeader1 in D:\altium\ultrazohm_digital_voltage_3U_1vxx\GroundPins.SchDoc with PinHeader1 from connectors.IntLib
Replace Part P10 PinHeader1 in D:\altium\ultrazohm_digital_voltage_3U_1vxx\GroundPins.SchDoc with PinHeader1 from connectors.IntLib
Replace Part P11 PinHeader1 in D:\altium\ultrazohm_digital_voltage_3U_1vxx\GroundPins.SchDoc with PinHeader1 from connectors.IntLib
Replace Part P12 PinHeader1 in D:\altium\ultrazohm_digital_voltage_3U_1vxx\GroundPins.SchDoc with PinHeader1 from connectors.IntLib
Replace Part P13 PinHeader1 in D:\altium\ultrazohm_digital_voltage_3U_1vxx\GroundPins.SchDoc with PinHeader1 from connectors.IntLib
Replace Part P14 PinHeader1 in D:\altium\ultrazohm_digital_voltage_3U_1vxx\GroundPins.SchDoc with PinHeader1 from connectors.IntLib
