Change Component Designator: Old Designator=NT1 New Designator=NT?
Change Component Designator: Old Designator=NT2 New Designator=NT?
Change Component Designator: Old Designator=NT3 New Designator=NT?
Change Component Designator: Old Designator=NT4 New Designator=NT?
Change Component Designator: Old Designator=NT5 New Designator=NT?
Change Component Designator: Old Designator=NT6 New Designator=NT?
Change Component Designator: Old Designator=NT7 New Designator=NT?
Change Component Designator: Old Designator=NT8 New Designator=NT?
Change Component Designator: Old Designator=NT9 New Designator=NT?
Change Component Designator: Old Designator=NT10 New Designator=NT?
Change Component Designator: Old Designator=NT11 New Designator=NT?
Change Component Designator: Old Designator=NT12 New Designator=NT?
Change Component Designator: Old Designator=NT13 New Designator=NT?
Change Component Designator: Old Designator=NT14 New Designator=NT?
Change Component Designator: Old Designator=NT15 New Designator=NT?
Change Component Designator: Old Designator=NT16 New Designator=NT?
Change Component Designator: Old Designator=NT17 New Designator=NT?
Change Component Designator: Old Designator=NT18 New Designator=NT?
Change Component Designator: Old Designator=NT19 New Designator=NT?
Change Component Designator: Old Designator=NT20 New Designator=NT?
Change Component Designator: Old Designator=NT21 New Designator=NT?
Change Component Designator: Old Designator=NT22 New Designator=NT?
Change Component Designator: Old Designator=NT23 New Designator=NT?
Change Component Designator: Old Designator=NT24 New Designator=NT?
Change Component Designator: Old Designator=NT25 New Designator=NT?
Change Component Designator: Old Designator=NT26 New Designator=NT?
Change Component Designator: Old Designator=NT27 New Designator=NT?
Change Component Designator: Old Designator=NT28 New Designator=NT?
Change Component Designator: Old Designator=NT29 New Designator=NT?
Change Component Designator: Old Designator=NT30 New Designator=NT?
