Replace Part J1 IPL1-115-01-XX-D-RA in D:\altium\ultrazohm_digital_voltage_3U_1vxx\SignalBundling.SchDoc with IPL1-115-01-XX-D-RA from connectors.IntLib
Replace Part J2 IPL1-120-01-XX-D-RA in D:\altium\ultrazohm_digital_voltage_3U_1vxx\SignalBundling.SchDoc with IPL1-120-01-XX-D-RA from connectors.IntLib
Replace Part R14 8xR-Array_1_part in D:\altium\ultrazohm_digital_voltage_3U_1vxx\SignalBundling.SchDoc with 8xR-Array_1_part from standard_rlc.IntLib
Replace Part R15 8xR-Array_1_part in D:\altium\ultrazohm_digital_voltage_3U_1vxx\SignalBundling.SchDoc with 8xR-Array_1_part from standard_rlc.IntLib
Replace Part R16 8xR-Array_1_part in D:\altium\ultrazohm_digital_voltage_3U_1vxx\SignalBundling.SchDoc with 8xR-Array_1_part from standard_rlc.IntLib
Replace Part R17 8xR-Array_1_part in D:\altium\ultrazohm_digital_voltage_3U_1vxx\SignalBundling.SchDoc with 8xR-Array_1_part from standard_rlc.IntLib
