Replace Part U3 DS26C31TMX in D:\altium\ultrazohm_digital_voltage_3U_1vxx\TI_DS26C31T.SchDoc with DS26C31TMX from interface_ics.IntLib
Replace Part U3 DS26C31TMX in D:\altium\ultrazohm_digital_voltage_3U_1vxx\TI_DS26C31T.SchDoc with DS26C31TMX from interface_ics.IntLib
Replace Part U3 DS26C31TMX in D:\altium\ultrazohm_digital_voltage_3U_1vxx\TI_DS26C31T.SchDoc with DS26C31TMX from interface_ics.IntLib
Replace Part U3 DS26C31TMX in D:\altium\ultrazohm_digital_voltage_3U_1vxx\TI_DS26C31T.SchDoc with DS26C31TMX from interface_ics.IntLib
Replace Part U3 DS26C31TMX in D:\altium\ultrazohm_digital_voltage_3U_1vxx\TI_DS26C31T.SchDoc with DS26C31TMX from interface_ics.IntLib
