Replace Part R32 R_0.1W_SMD in D:\altium\ultrazohm_digital_voltage_3U_1vxx\TI_SN74LVCH16T245.SchDoc with R_0.1W_SMD from standard_rlc.IntLib
Replace Part R33 R_0.1W_SMD in D:\altium\ultrazohm_digital_voltage_3U_1vxx\TI_SN74LVCH16T245.SchDoc with R_0.1W_SMD from standard_rlc.IntLib
Replace Part R34 R_0.1W_SMD in D:\altium\ultrazohm_digital_voltage_3U_1vxx\TI_SN74LVCH16T245.SchDoc with R_0.1W_SMD from standard_rlc.IntLib
Replace Part R35 R_0.1W_SMD in D:\altium\ultrazohm_digital_voltage_3U_1vxx\TI_SN74LVCH16T245.SchDoc with R_0.1W_SMD from standard_rlc.IntLib
