Change Component Physical Designator: Old Designator=C1 New Designator=C17
Change Component Physical Designator: Old Designator=C2 New Designator=C22
Change Component Physical Designator: Old Designator=C3 New Designator=C18
Change Component Physical Designator: Old Designator=C4 New Designator=C19
Change Component Physical Designator: Old Designator=C5 New Designator=C20
Change Component Physical Designator: Old Designator=C6 New Designator=C21
Change Component Physical Designator: Old Designator=R1 New Designator=R32
Change Component Physical Designator: Old Designator=R2 New Designator=R31
Change Component Physical Designator: Old Designator=R3 New Designator=R15
Change Component Physical Designator: Old Designator=R4 New Designator=R17
Change Component Physical Designator: Old Designator=R5 New Designator=R18
Change Component Physical Designator: Old Designator=R6 New Designator=R16
Change Component Physical Designator: Old Designator=R15 New Designator=R23
Change Component Physical Designator: Old Designator=R16 New Designator=R27
Change Component Physical Designator: Old Designator=R17 New Designator=R24
Change Component Physical Designator: Old Designator=R18 New Designator=R28
Change Component Physical Designator: Old Designator=R19 New Designator=R25
Change Component Physical Designator: Old Designator=R20 New Designator=R29
Change Component Physical Designator: Old Designator=R22 New Designator=R26
Change Component Physical Designator: Old Designator=R23 New Designator=R2
Change Component Physical Designator: Old Designator=R24 New Designator=R1
Change Component Physical Designator: Old Designator=U1 New Designator=U5
Change Component Physical Designator: Old Designator=U5 New Designator=U1
